adaboost-4.dat
ITERATION - 1
~~~~~~~~~~~~~~~
The selected weak classifier: 1.3792905
The error of ht: 0.36
The weight of ht: 0.28768207245178096
The probabilities normalization factor: 0.9600000000000003
The probabilities after normalization: 
0.03125  0.05556  0.03125  0.03125  0.03125  0.05556  0.05556  0.05556  0.03125  0.03125  0.03125  0.03125  0.05556  0.03125  0.03125  0.05556  0.03125  0.05556  0.05556  0.03125  0.05556  0.03125  0.03125  0.03125  0.03125  
The boosted classifier: ft 
 0.28768207245178096 I (x < 1.3792905) 
The error of the boosted classifer: 0.36
The bound on Et: 0.9600000000000003
____________________________________________________________________
ITERATION - 2
~~~~~~~~~~~~~~~
The selected weak classifier: 0.086185
The error of ht: 0.39931
The weight of ht: 0.20417046844519338
The probabilities normalization factor: 0.9795458061079139
The probabilities after normalization: 
0.02601  0.06957  0.02601  0.02601  0.02601  0.04625  0.04625  0.04625  0.03913  0.03913  0.03913  0.03913  0.04625  0.03913  0.03913  0.04625  0.03913  0.04625  0.04625  0.03913  0.04625  0.03913  0.03913  0.03913  0.02601  
The boosted classifier: ft 
 0.28768207245178096 I (x < 1.3792905) + 0.20417046844519338 I (x < 0.086185) 
The error of the boosted classifer: 0.36
The bound on Et: 0.9403639738635976
____________________________________________________________________
ITERATION - 3
~~~~~~~~~~~~~~~
The selected weak classifier: 0.281422
The error of ht: 0.36124999999999996
The weight of ht: 0.2849714510456362
The probabilities normalization factor: 0.9607921234171392
The probabilities after normalization: 
0.036  0.05445  0.036  0.036  0.036  0.0362  0.0362  0.0362  0.03063  0.03063  0.03063  0.03063  0.06401  0.03063  0.03063  0.06401  0.03063  0.06401  0.06401  0.03063  0.06401  0.03063  0.03063  0.03063  0.036  
The boosted classifier: ft 
 0.28768207245178096 I (x < 1.3792905) + 0.20417046844519338 I (x < 0.086185) + 0.2849714510456362 I (x < 0.281422) 
The error of the boosted classifer: 0.24
The bound on Et: 0.9034942992333851
____________________________________________________________________
ITERATION - 4
~~~~~~~~~~~~~~~
The selected weak classifier: 0.3782415
The error of ht: 0.37746
The weight of ht: 0.25017164024629374
The probabilities normalization factor: 0.9695262190088985
The probabilities after normalization: 
0.02891  0.07213  0.02891  0.02891  0.02891  0.04795  0.04795  0.04795  0.0246  0.0246  0.0246  0.0246  0.05141  0.04057  0.04057  0.05141  0.04057  0.05141  0.05141  0.04057  0.05141  0.04057  0.04057  0.04057  0.02891  
The boosted classifier: ft 
 0.28768207245178096 I (x < 1.3792905) + 0.20417046844519338 I (x < 0.086185) + 0.2849714510456362 I (x < 0.281422) + 0.25017164024629374 I (x < 0.3782415) 
The error of the boosted classifer: 0.36
The bound on Et: 0.8759614118318382
____________________________________________________________________
ITERATION - 5
~~~~~~~~~~~~~~~
The selected weak classifier: 0.281422
The error of ht: 0.40163000000000004
The weight of ht: 0.19933901246547456
The probabilities normalization factor: 0.9804190784255827
The probabilities after normalization: 
0.03599  0.06027  0.03599  0.03599  0.03599  0.04007  0.04007  0.04007  0.02056  0.02056  0.02056  0.02056  0.064  0.0339  0.0339  0.064  0.0339  0.064  0.064  0.0339  0.064  0.0339  0.0339  0.0339  0.03599  
The boosted classifier: ft 
 0.28768207245178096 I (x < 1.3792905) + 0.20417046844519338 I (x < 0.086185) + 0.2849714510456362 I (x < 0.281422) + 0.25017164024629374 I (x < 0.3782415) + 0.19933901246547456 I (x < 0.281422) 
The error of the boosted classifer: 0.24
The bound on Et: 0.8588092801245432
____________________________________________________________________
ITERATION - 6
~~~~~~~~~~~~~~~
The selected weak classifier: 0.086185
The error of ht: 0.37981
The weight of ht: 0.24517737751329344
The probabilities normalization factor: 0.9706553862989521
The probabilities after normalization: 
0.02902  0.07934  0.02902  0.02902  0.02902  0.03231  0.03231  0.03231  0.02707  0.02707  0.02707  0.02707  0.0516  0.04463  0.04463  0.0516  0.04463  0.0516  0.0516  0.04463  0.0516  0.04463  0.04463  0.04463  0.02902  
The boosted classifier: ft 
 0.28768207245178096 I (x < 1.3792905) + 0.20417046844519338 I (x < 0.086185) + 0.2849714510456362 I (x < 0.281422) + 0.25017164024629374 I (x < 0.3782415) + 0.19933901246547456 I (x < 0.281422) + 0.24517737751329344 I (x < 0.086185) 
The error of the boosted classifer: 0.24
The bound on Et: 0.8336078535564134
____________________________________________________________________
ITERATION - 7
~~~~~~~~~~~~~~~
The selected weak classifier: 0.281422
The error of ht: 0.40303999999999995
The weight of ht: 0.1964071484342739
The probabilities normalization factor: 0.981090367566676
The probabilities after normalization: 
0.036  0.06645  0.036  0.036  0.036  0.02706  0.02706  0.02706  0.02267  0.02267  0.02267  0.02267  0.06401  0.03738  0.03738  0.06401  0.03738  0.06401  0.06401  0.03738  0.06401  0.03738  0.03738  0.03738  0.036  
The boosted classifier: ft 
 0.28768207245178096 I (x < 1.3792905) + 0.20417046844519338 I (x < 0.086185) + 0.2849714510456362 I (x < 0.281422) + 0.25017164024629374 I (x < 0.3782415) + 0.19933901246547456 I (x < 0.281422) + 0.24517737751329344 I (x < 0.086185) + 0.1964071484342739 I (x < 0.281422) 
The error of the boosted classifer: 0.24
The bound on Et: 0.8178446354521295
____________________________________________________________________
ITERATION - 8
~~~~~~~~~~~~~~~
The selected weak classifier: 0.698907
The error of ht: 0.39854
The weight of ht: 0.20577608159170857
The probabilities normalization factor: 0.9792115997398356
The probabilities after normalization: 
0.02993  0.08337  0.02993  0.02993  0.02993  0.03395  0.03395  0.03395  0.01885  0.01885  0.01885  0.01885  0.0803  0.03107  0.03107  0.05321  0.0469  0.05321  0.05321  0.0469  0.05321  0.0469  0.0469  0.0469  0.02993  
The boosted classifier: ft 
 0.28768207245178096 I (x < 1.3792905) + 0.20417046844519338 I (x < 0.086185) + 0.2849714510456362 I (x < 0.281422) + 0.25017164024629374 I (x < 0.3782415) + 0.19933901246547456 I (x < 0.281422) + 0.24517737751329344 I (x < 0.086185) + 0.1964071484342739 I (x < 0.281422) + 0.20577608159170857 I (x < 0.698907) 
The error of the boosted classifer: 0.24
The bound on Et: 0.8008429538197224
____________________________________________________________________
ITERATION - 9
~~~~~~~~~~~~~~~
The selected weak classifier: 1.0506090000000001
The error of ht: 0.38093999999999995
The weight of ht: 0.24278015805492006
The probabilities normalization factor: 0.9712994809340285
The probabilities after normalization: 
0.03928  0.06733  0.03928  0.03928  0.03928  0.02742  0.02742  0.02742  0.02474  0.02474  0.02474  0.02474  0.06485  0.04078  0.04078  0.04297  0.06155  0.04297  0.04297  0.06155  0.04297  0.03788  0.03788  0.03788  0.03928  
The boosted classifier: ft 
 0.28768207245178096 I (x < 1.3792905) + 0.20417046844519338 I (x < 0.086185) + 0.2849714510456362 I (x < 0.281422) + 0.25017164024629374 I (x < 0.3782415) + 0.19933901246547456 I (x < 0.281422) + 0.24517737751329344 I (x < 0.086185) + 0.1964071484342739 I (x < 0.281422) + 0.20577608159170857 I (x < 0.698907) + 0.24278015805492006 I (x < 1.0506090000000001) 
The error of the boosted classifer: 0.16
The bound on Et: 0.7778583453547705
____________________________________________________________________
ITERATION - 10
~~~~~~~~~~~~~~~
The selected weak classifier: 1.3792905
The error of ht: 0.38632
The weight of ht: 0.23140378904287723
The probabilities normalization factor: 0.9737949091322082
The probabilities after normalization: 
0.032  0.08714  0.032  0.032  0.032  0.03549  0.03549  0.03549  0.02016  0.02016  0.02016  0.02016  0.08393  0.03323  0.03323  0.05562  0.05015  0.05562  0.05562  0.05015  0.05562  0.03086  0.03086  0.03086  0.032  
The boosted classifier: ft 
 0.28768207245178096 I (x < 1.3792905) + 0.20417046844519338 I (x < 0.086185) + 0.2849714510456362 I (x < 0.281422) + 0.25017164024629374 I (x < 0.3782415) + 0.19933901246547456 I (x < 0.281422) + 0.24517737751329344 I (x < 0.086185) + 0.1964071484342739 I (x < 0.281422) + 0.20577608159170857 I (x < 0.698907) + 0.24278015805492006 I (x < 1.0506090000000001) + 0.23140378904287723 I (x < 1.3792905) 
The error of the boosted classifer: 0.24
The bound on Et: 0.7574744967324786
____________________________________________________________________
========================================================================================================
